…
# Resumo por sexo
enem_summary(enem, by = "tp_sexo")
#> # A tibble: 20 × 11
#>    tp_sexo variable            n n_valid  mean    sd   min   q25 median   q75   max
#>    <chr>   <chr>           <int>   <int> <dbl> <dbl> <dbl> <dbl>  <dbl> <dbl> <dbl>
#>  1 F       nu_nota_cn       7042    5130  485.  76.5     0  435    481.  532   817.
#>  2 M       nu_nota_cn       2958    2151  507.  85.1     0  455.   508.  560.  804.
#>  3 F       nu_nota_ch       7042    5328  527.  78.6     0  480.   532.  579.  784.
#>  4 M       nu_nota_ch       2958    2234  535.  88.2     0  483.   542.  596.  823
#>  5 F       nu_nota_lc       7042    5328  520.  68.2     0  476.   523.  566.  731.
#>  6 M       nu_nota_lc       2958    2234  522.  75.5     0  478.   527.  574.  729.
#>  7 F       nu_nota_mt       7042    5130  509. 116.      0  420.   494.  589   944.
#>  8 M       nu_nota_mt       2958    2151  547. 129.      0  447.   540.  643.  945.
#>  9 F       nu_nota_comp1    7042    5328  128.  30.8     0  120    120   160   200
#> 10 M       nu_nota_comp1    2958    2234  121.  34.6     0  100    120   140   200
#> # ℹ 10 more rows
```
…
